T0020.CSV

Model,MSO2014
Firmware Version,1.35

Point Format,Y,
Horizontal Units,S,
Horizontal Scale,2,
Sample Interval,0.00016,
Filter Frequency,1e+08,
Record Length,125000,
Gating,0.0% to 100.0%,
Probe Attenuation,1,
Vertical Units,V,
Vertical Offset,0,
Vertical Scale,0.2,
Label,,
TIME,CH1,CH1 Peak Detect
-1.0000e+01,-0.056,0.112
-9.9998e+00,-0.032,-0.128
-9.9997e+00,-0.024,0.112
-9.9995e+00,0,-0.128
-9.9994e+00,0,0.112
-9.9992e+00,-0.016,-0.128
-9.9990e+00,0.008,0.112
-9.9989e+00,0,-0.144
-9.9987e+00,-0.04,0.128
-9.9986e+00,0,-0.152
-9.9984e+00,0,0.144
-9.9982e+00,0.008,-0.144
-9.9981e+00,-0.016,0.128
-9.9979e+00,-0.064,-0.136
-9.9978e+00,0,0.128
-9.9976e+00,0.032,-0.16
-9.9974e+00,-0.024,0.144
-9.9973e+00,-0.016,-0.16
-9.9971e+00,0.008,0.136
-9.9970e+00,0.048,-0.144
-9.9968e+00,0.008,0.128
-9.9966e+00,0.016,-0.144
-9.9965e+00,-0.032,0.136
-9.9963e+00,0,-0.144
-9.9962e+00,0.008,0.128
-9.9960e+00,-0.008,-0.136
-9.9958e+00,0.008,0.136
-9.9957e+00,0,-0.128
-9.9955e+00,0.032,0.128
-9.9954e+00,-0.056,-0.136
-9.9952e+00,0.064,0.128
-9.9950e+00,-0.032,-0.128
-9.9949e+00,-0.024,0.128
-9.9947e+00,0.048,-0.136
-9.9946e+00,-0.008,0.128
-9.9944e+00,0.04,-0.128
-9.9942e+00,0.016,0.128
-9.9941e+00,0.048,-0.128
-9.9939e+00,-0.016,0.128
-9.9938e+00,0.008,-0.112
-9.9936e+00,0.024,0.112
-9.9934e+00,-0.008,-0.112
-9.9933e+00,-0.056,0.112
-9.9931e+00,0.016,-0.112
-9.9930e+00,-0.024,0.12
-9.9928e+00,-0.016,-0.112
-9.9926e+00,-0.016,0.112
-9.9925e+00,0,-0.12
-9.9923e+00,0.016,0.12
-9.9922e+00,0.016,-0.112
-9.9920e+00,0,0.112
-9.9918e+00,-0.024,-0.112
-9.9917e+00,0.024,0.12
-9.9915e+00,0.032,-0.104
-9.9914e+00,0.024,0.12
-9.9912e+00,0.016,-0.12
-9.9910e+00,0.032,0.128
-9.9909e+00,-0.024,-0.112
-9.9907e+00,0.04,0.128
-9.9906e+00,0.04,-0.136
-9.9904e+00,0,0.136
-9.9902e+00,0.016,-0.12
-9.9901e+00,0.048,0.128
-9.9899e+00,-0.032,-0.128
-9.9898e+00,0.008,0.136
-9.9896e+00,0,-0.128
-9.9894e+00,0.008,0.128
-9.9893e+00,0.04,-0.12
-9.9891e+00,0.04,0.136
-9.9890e+00,-0.024,-0.128
-9.9888e+00,0.056,0.144
-9.9886e+00,-0.032,-0.128
-9.9885e+00,0.056,0.136
-9.9883e+00,0.016,-0.12
-9.9882e+00,0.016,0.136
-9.9880e+00,0.024,-0.128
-9.9878e+00,0,0.136
-9.9877e+00,0,-0.12
-9.9875e+00,0,0.128
-9.9874e+00,0.008,-0.12
-9.9872e+00,0.016,0.144
-9.9870e+00,0.056,-0.136
-9.9869e+00,-0.04,0.136
-9.9867e+00,0.008,-0.12
-9.9866e+00,0.048,0.128
-9.9864e+00,-0.056,-0.12
-9.9862e+00,0.056,0.128
-9.9861e+00,-0.016,-0.128
-9.9859e+00,0.048,0.136
-9.9858e+00,0.056,-0.12
-9.9856e+00,0.024,0.128
-9.9854e+00,0.008,-0.112
-9.9853e+00,-0.008,0.112
-9.9851e+00,-0.008,-0.112
-9.9850e+00,-0.048,0.12
-9.9848e+00,-0.016,-0.112
-9.9846e+00,0.032,0.12
-9.9845e+00,0.032,-0.12
-9.9843e+00,0.016,0.128
-9.9842e+00,-0.016,-0.12
-9.9840e+00,0.032,0.12
-9.9838e+00,0.016,-0.12
-9.9837e+00,0.024,0.128
-9.9835e+00,-0.016,-0.12
-9.9834e+00,-0.024,0.12
-9.9832e+00,0.032,-0.12
-9.9830e+00,0.016,0.128
-9.9829e+00,0.048,-0.128
-9.9827e+00,0.032,0.136
-9.9826e+00,0,-0.12
-9.9824e+00,0.008,0.128
-9.9822e+00,0.008,-0.128
-9.9821e+00,-0.016,0.128
-9.9819e+00,-0.04,-0.144
-9.9818e+00,0.048,0.152
-9.9816e+00,0.024,-0.128
-9.9814e+00,-0.04,0.136
-9.9813e+00,-0.008,-0.16
-9.9811e+00,0.024,0.16
-9.9810e+00,-0.056,-0.168
-9.9808e+00,0,0.136
-9.9806e+00,0.048,-0.128
-9.9805e+00,0.056,0.136
-9.9803e+00,-0.04,-0.128
-9.9802e+00,-0.024,0.144
-9.9800e+00,-0.032,-0.136
-9.9798e+00,-0.016,0.144
-9.9797e+00,0.024,-0.144
-9.9795e+00,-0.008,0.136
-9.9794e+00,0.024,-0.128
-9.9792e+00,-0.048,0.136
-9.9790e+00,0.016,-0.12
-9.9789e+00,-0.032,0.128
-9.9787e+00,-0.024,-0.12
-9.9786e+00,-0.072,0.12
-9.9784e+00,0,-0.128
-9.9782e+00,0.008,0.128
-9.9781e+00,0.04,-0.112
-9.9779e+00,-0.016,0.128
-9.9778e+00,0.016,-0.12
-9.9776e+00,-0.008,0.128
-9.9774e+00,0,-0.128
-9.9773e+00,0.016,0.128
-9.9771e+00,0,-0.112
-9.9770e+00,0.008,0.112
-9.9768e+00,-0.008,-0.12
-9.9766e+00,0.024,0.128
-9.9765e+00,0.016,-0.112
-9.9763e+00,-0.04,0.112
-9.9762e+00,-0.032,-0.104
-9.9760e+00,0.024,0.112
-9.9758e+00,0.048,-0.12
-9.9757e+00,0,0.12
-9.9755e+00,0.008,-0.12
-9.9754e+00,0,0.128
-9.9752e+00,-0.032,-0.104
-9.9750e+00,-0.024,0.12
-9.9749e+00,0,-0.112
-9.9747e+00,0.048,0.112
-9.9746e+00,0.048,-0.104
-9.9744e+00,0.024,0.112
-9.9742e+00,0.032,-0.104
-9.9741e+00,-0.008,0.12
-9.9739e+00,-0.024,-0.128
-9.9738e+00,0.024,0.144
-9.9736e+00,0.032,-0.128
-9.9734e+00,0.048,0.144
-9.9733e+00,0,-0.12
-9.9731e+00,0.016,0.136
-9.9730e+00,0.008,-0.128
-9.9728e+00,-0.04,0.144
-9.9726e+00,-0.008,-0.136
-9.9725e+00,0.008,0.136
-9.9723e+00,-0.032,-0.144
-9.9722e+00,0.016,0.152
-9.9720e+00,0,-0.128
-9.9718e+00,0.048,0.152
-9.9717e+00,-0.016,-0.128
-9.9715e+00,0.04,0.144
-9.9714e+00,-0.048,-0.128
-9.9712e+00,0.056,0.144
-9.9710e+00,-0.008,-0.128
-9.9709e+00,0.024,0.152
-9.9707e+00,0.016,-0.112
-9.9706e+00,-0.008,0.128
-9.9704e+00,0.032,-0.128
-9.9702e+00,0.024,0.136
-9.9701e+00,0,-0.112
-9.9699e+00,0.024,0.136
-9.9698e+00,0.032,-0.12
-9.9696e+00,0.056,0.136
-9.9694e+00,0.056,-0.12
-9.9693e+00,0.008,0.136
-9.9691e+00,0.008,-0.12
-9.9690e+00,-0.048,0.144
-9.9688e+00,0,-0.112
-9.9686e+00,0.008,0.136
-9.9685e+00,0.048,-0.104
-9.9683e+00,0,0.12
-9.9682e+00,0.016,-0.112
-9.9680e+00,0.04,0.128
-9.9678e+00,-0.024,-0.12
-9.9677e+00,-0.008,0.136
-9.9675e+00,0.016,-0.112
-9.9674e+00,-0.04,0.12
-9.9672e+00,0.032,-0.112
-9.9670e+00,0.032,0.128
-9.9669e+00,0.056,-0.104
-9.9667e+00,0.008,0.12
-9.9666e+00,-0.024,-0.104
-9.9664e+00,0.008,0.12
-9.9662e+00,0,-0.104
-9.9661e+00,0.024,0.12
-9.9659e+00,0.016,-0.112
-9.9658e+00,0.032,0.128
-9.9656e+00,0.048,-0.128
-9.9654e+00,0.04,0.144
-9.9653e+00,0.072,-0.136
-9.9651e+00,0,0.144
-9.9650e+00,0.056,-0.136
-9.9648e+00,-0.08,0.144
-9.9646e+00,-0.016,-0.128
-9.9645e+00,0.064,0.144
-9.9643e+00,0.048,-0.128
-9.9642e+00,0.08,0.136
-9.9640e+00,0.032,-0.12
-9.9638e+00,-0.024,0.144
-9.9637e+00,0.008,-0.136
-9.9635e+00,0.008,0.144
-9.9634e+00,-0.024,-0.12
-9.9632e+00,0.032,0.128
-9.9630e+00,0.016,-0.12
-9.9629e+00,0.016,0.128
-9.9627e+00,0.024,-0.112
-9.9626e+00,-0.008,0.12
-9.9624e+00,0.048,-0.12
-9.9622e+00,-0.032,0.128
-9.9621e+00,-0.008,-0.12
-9.9619e+00,0.056,0.128
-9.9618e+00,0.016,-0.12
-9.9616e+00,0.032,0.12
-9.9614e+00,0,-0.128
-9.9613e+00,0.04,0.128
-9.9611e+00,0,-0.128
-9.9610e+00,-0.048,0.12
-9.9608e+00,-0.08,-0.128
-9.9606e+00,0.016,0.12
-9.9605e+00,-0.048,-0.128
-9.9603e+00,-0.024,0.12
-9.9602e+00,0.032,-0.12
-9.9600e+00,-0.032,0.112
-9.9598e+00,-0.056,-0.12
-9.9597e+00,0.024,0.12
-9.9595e+00,-0.032,-0.128
-9.9594e+00,0.024,0.112
-9.9592e+00,-0.008,-0.12
-9.9590e+00,-0.008,0.112
-9.9589e+00,0.008,-0.12
-9.9587e+00,0.008,0.112
-9.9586e+00,0.016,-0.12
-9.9584e+00,-0.016,0.112
-9.9582e+00,-0.032,-0.12
-9.9581e+00,-0.024,0.104
-9.9579e+00,-0.008,-0.12
-9.9578e+00,0.04,0.112
-9.9576e+00,-0.016,-0.12
-9.9574e+00,0.064,0.104
-9.9573e+00,0.024,-0.136
-9.9571e+00,-0.056,0.12
-9.9570e+00,-0.016,-0.136
-9.9568e+00,-0.008,0.12
-9.9566e+00,-0.024,-0.136
-9.9565e+00,0.016,0.128
-9.9563e+00,0.008,-0.144
-9.9562e+00,0.032,0.144
-9.9560e+00,0.016,-0.144
-9.9558e+00,-0.032,0.128
-9.9557e+00,0.016,-0.152
-9.9555e+00,-0.024,0.128
-9.9554e+00,-0.04,-0.144
-9.9552e+00,0.04,0.128
-9.9550e+00,0,-0.136
-9.9549e+00,-0.008,0.112
-9.9547e+00,0.04,-0.136
-9.9546e+00,-0.064,0.12
-9.9544e+00,0.032,-0.136
-9.9542e+00,0.016,0.112
-9.9541e+00,-0.032,-0.136
-9.9539e+00,-0.072,0.112
-9.9538e+00,0,-0.128
-9.9536e+00,0.008,0.112
-9.9534e+00,-0.008,-0.144
-9.9533e+00,-0.024,0.128
-9.9531e+00,-0.032,-0.144
-9.9530e+00,0,0.12
-9.9528e+00,-0.024,-0.136
-9.9526e+00,0,0.12
-9.9525e+00,-0.032,-0.152
-9.9523e+00,-0.016,0.128
-9.9522e+00,-0.024,-0.128
-9.9520e+00,-0.016,0.104
-9.9518e+00,0,-0.12
-9.9517e+00,-0.04,0.104
-9.9515e+00,-0.008,-0.12
-9.9514e+00,-0.008,0.104
-9.9512e+00,0.008,-0.128
-9.9510e+00,0.008,0.104
-9.9509e+00,0,-0.12
-9.9507e+00,0.016,0.104
-9.9506e+00,-0.04,-0.128
-9.9504e+00,0.008,0.104
-9.9502e+00,-0.016,-0.128
-9.9501e+00,0.008,0.112
-9.9499e+00,-0.016,-0.12
-9.9498e+00,0.008,0.104
-9.9496e+00,-0.008,-0.128
-9.9494e+00,-0.008,0.104
-9.9493e+00,0.032,-0.12
-9.9491e+00,0.016,0.104
-9.9490e+00,0,-0.144
-9.9488e+00,-0.024,0.136
-9.9486e+00,0,-0.136
-9.9485e+00,-0.024,0.128
-9.9483e+00,-0.04,-0.144
-9.9482e+00,0.008,0.128
-9.9480e+00,-0.016,-0.136
-9.9478e+00,-0.072,0.128
-9.9477e+00,0.008,-0.136
-9.9475e+00,-0.016,0.12
-9.9474e+00,0,-0.144
-9.9472e+00,0,0.128
-9.9470e+00,0.056,-0.144
-9.9469e+00,-0.048,0.136
-9.9467e+00,0.016,-0.136
-9.9466e+00,0.032,0.12
-9.9464e+00,-0.016,-0.128
-9.9462e+00,0.008,0.12
-9.9461e+00,0.008,-0.128
-9.9459e+00,0,0.128
-9.9458e+00,0.016,-0.128
-9.9456e+00,0.016,0.12
-9.9454e+00,0.008,-0.12
-9.9453e+00,0.016,0.12
-9.9451e+00,-0.048,-0.136
-9.9450e+00,0,0.136
-9.9448e+00,-0.032,-0.128
-9.9446e+00,0.024,0.128
-9.9445e+00,-0.024,-0.128
-9.9443e+00,0,0.128
-9.9442e+00,-0.008,-0.144
-9.9440e+00,-0.024,0.136
-9.9438e+00,0.032,-0.12
-9.9437e+00,0.048,0.12
-9.9435e+00,0.016,-0.104
-9.9434e+00,0.008,0.104
-9.9432e+00,0.016,-0.112
-9.9430e+00,0.04,0.112
-9.9429e+00,-0.024,-0.12
-9.9427e+00,-0.008,0.12
-9.9426e+00,-0.048,-0.112
-9.9424e+00,0,0.112
-9.9422e+00,0.024,-0.112
-9.9421e+00,0.008,0.112
-9.9419e+00,0.008,-0.128
-9.9418e+00,-0.008,0.136
-9.9416e+00,0,-0.112
-9.9414e+00,0.032,0.128
-9.9413e+00,-0.048,-0.144
-9.9411e+00,0.032,0.136
-9.9410e+00,0.032,-0.104
-9.9408e+00,0.032,0.112
-9.9406e+00,-0.008,-0.12
-9.9405e+00,0.016,0.128
-9.9403e+00,-0.008,-0.12
-9.9402e+00,-0.032,0.136
-9.9400e+00,0.04,-0.12
-9.9398e+00,-0.024,0.128
-9.9397e+00,0.04,-0.128
-9.9395e+00,0.04,0.136
-9.9394e+00,0.016,-0.128
-9.9392e+00,0,0.128
-9.9390e+00,0.08,-0.128
-9.9389e+00,0.008,0.136
-9.9387e+00,0.032,-0.136
-9.9386e+00,-0.024,0.136
-9.9384e+00,0.032,-0.128
-9.9382e+00,-0.032,0.136
-9.9381e+00,-0.04,-0.12
-9.9379e+00,0,0.128
-9.9378e+00,-0.016,-0.136
-9.9376e+00,0.008,0.128
-9.9374e+00,-0.008,-0.128
-9.9373e+00,0.032,0.144
-9.9371e+00,0.04,-0.12
-9.9370e+00,-0.008,0.136
-9.9368e+00,0.008,-0.12
-9.9366e+00,-0.04,0.128
-9.9365e+00,-0.032,-0.144
-9.9363e+00,0.016,0.144
-9.9362e+00,-0.016,-0.12
-9.9360e+00,0.008,0.128
-9.9358e+00,0.048,-0.128
-9.9357e+00,0.016,0.136
-9.9355e+00,0.056,-0.12
-9.9354e+00,-0.032,0.12
-9.9352e+00,-0.04,-0.112
-9.9350e+00,0.04,0.12
-9.9349e+00,0.04,-0.104
-9.9347e+00,-0.032,0.112
-9.9346e+00,-0.04,-0.104
-9.9344e+00,0.008,0.112
-9.9342e+00,-0.008,-0.112
-9.9341e+00,0.04,0.12
-9.9339e+00,-0.016,-0.112
-9.9338e+00,0.016,0.12
-9.9336e+00,-0.016,-0.112
-9.9334e+00,-0.008,0.12
-9.9333e+00,0.008,-0.112
-9.9331e+00,0.016,0.12
-9.9330e+00,0.008,-0.112
-9.9328e+00,-0.048,0.128
-9.9326e+00,0.008,-0.128
-9.9325e+00,0.016,0.136
-9.9323e+00,0.008,-0.128
-9.9322e+00,0.032,0.136
-9.9320e+00,-0.032,-0.136
-9.9318e+00,0.032,0.136
-9.9317e+00,0.024,-0.12
-9.9315e+00,0.024,0.128
-9.9314e+00,0,-0.128
-9.9312e+00,-0.008,0.136
-9.9310e+00,-0.008,-0.128
-9.9309e+00,0.064,0.136
-9.9307e+00,0.008,-0.144
-9.9306e+00,-0.016,0.144
-9.9304e+00,-0.048,-0.136
-9.9302e+00,0.04,0.144
-9.9301e+00,-0.072,-0.128
-9.9299e+00,0.024,0.128
-9.9298e+00,0.008,-0.128
-9.9296e+00,0.032,0.128
-9.9294e+00,0.032,-0.128
-9.9293e+00,0.008,0.144
-9.9291e+00,-0.072,-0.12
-9.9290e+00,0,0.128
-9.9288e+00,0.04,-0.12
-9.9286e+00,-0.032,0.128
-9.9285e+00,0,-0.12
-9.9283e+00,0.024,0.128
-9.9282e+00,-0.032,-0.136
-9.9280e+00,0.048,0.136
-9.9278e+00,-0.056,-0.136
-9.9277e+00,-0.024,0.136
-9.9275e+00,0.024,-0.136
-9.9274e+00,-0.032,0.136
-9.9272e+00,-0.016,-0.112
-9.9270e+00,-0.008,0.128
-9.9269e+00,0.024,-0.112
-9.9267e+00,0.008,0.12
-9.9266e+00,0,-0.112
-9.9264e+00,0.024,0.112
-9.9262e+00,0.04,-0.112
-9.9261e+00,0.032,0.12
-9.9259e+00,0.008,-0.112
-9.9258e+00,-0.024,0.128
-9.9256e+00,-0.016,-0.112
-9.9254e+00,-0.04,0.12
-9.9253e+00,-0.016,-0.112
-9.9251e+00,-0.008,0.128
-9.9250e+00,0.024,-0.112
-9.9248e+00,0.024,0.128
-9.9246e+00,0.016,-0.12
-9.9245e+00,0.008,0.128
-9.9243e+00,0.008,-0.112
-9.9242e+00,0.056,0.128
-9.9240e+00,-0.008,-0.12
-9.9238e+00,0.056,0.136
-9.9237e+00,0.008,-0.112
-9.9235e+00,-0.016,0.128
-9.9234e+00,0.008,-0.12
-9.9232e+00,-0.032,0.128
-9.9230e+00,-0.08,-0.128
-9.9229e+00,0.056,0.136
-9.9227e+00,-0.016,-0.144
-9.9226e+00,0.032,0.152
-9.9224e+00,0.008,-0.136
-9.9222e+00,0.072,0.144
-9.9221e+00,0.008,-0.128
-9.9219e+00,-0.008,0.136
-9.9218e+00,0.024,-0.128
-9.9216e+00,-0.032,0.144
-9.9214e+00,-0.008,-0.12
-9.9213e+00,-0.032,0.136
-9.9211e+00,0.04,-0.12
-9.9210e+00,0.024,0.136
-9.9208e+00,-0.008,-0.12
-9.9206e+00,0.04,0.136
-9.9205e+00,0,-0.112
-9.9203e+00,0.008,0.128
-9.9202e+00,-0.008,-0.12
-9.9200e+00,0.008,0.136
-9.9198e+00,0.056,-0.12
-9.9197e+00,0.008,0.152
-9.9195e+00,0.008,-0.128
-9.9194e+00,0,0.136
-9.9192e+00,-0.024,-0.128
-9.9190e+00,-0.024,0.136
-9.9189e+00,-0.016,-0.12
-9.9187e+00,0.008,0.136
-9.9186e+00,-0.024,-0.104
-9.9184e+00,0.056,0.12
-9.9182e+00,0.04,-0.112
-9.9181e+00,-0.008,0.128
-9.9179e+00,-0.016,-0.104
-9.9178e+00,0.048,0.128
-9.9176e+00,-0.032,-0.104
-9.9174e+00,0.032,0.12
-9.9173e+00,0.04,-0.104
-9.9171e+00,0.016,0.12
-9.9170e+00,0.04,-0.112
-9.9168e+00,0.016,0.128
-9.9166e+00,-0.024,-0.104
-9.9165e+00,-0.016,0.12
-9.9163e+00,0.016,-0.104
-9.9162e+00,0,0.128
-9.9160e+00,0.016,-0.112
-9.9158e+00,-0.048,0.12
-9.9157e+00,0.032,-0.12
-9.9155e+00,0,0.128
-9.9154e+00,-0.016,-0.128
-9.9152e+00,-0.024,0.144
-9.9150e+00,0.016,-0.12
-9.9149e+00,0.024,0.136
-9.9147e+00,0.04,-0.128
-9.9146e+00,0.056,0.144
-9.9144e+00,0.056,-0.128
-9.9142e+00,-0.016,0.144
-9.9141e+00,0.056,-0.128
-9.9139e+00,-0.008,0.128
-9.9138e+00,-0.008,-0.128
-9.9136e+00,-0.024,0.136
-9.9134e+00,-0.048,-0.128
-9.9133e+00,0,0.136
-9.9131e+00,-0.016,-0.128
-9.9130e+00,-0.008,0.136
-9.9128e+00,0.008,-0.128
-9.9126e+00,-0.048,0.136
-9.9125e+00,-0.056,-0.128
-9.9123e+00,0.016,0.12
-9.9122e+00,0.048,-0.128
-9.9120e+00,0.032,0.128
-9.9118e+00,-0.008,-0.12
-9.9117e+00,0,0.128
-9.9115e+00,0.04,-0.128
-9.9114e+00,0.032,0.128
-9.9112e+00,0.016,-0.12
-9.9110e+00,-0.032,0.12
-9.9109e+00,0.024,-0.128
-9.9107e+00,0.008,0.136
-9.9106e+00,0.032,-0.112
-9.9104e+00,0.008,0.112
-9.9102e+00,0,-0.112
-9.9101e+00,0.008,0.104
-9.9099e+00,0.016,-0.12
-9.9098e+00,-0.04,0.12
-9.9096e+00,0.04,-0.12
-9.9094e+00,-0.04,0.112
-9.9093e+00,0.008,-0.12
-9.9091e+00,0.024,0.104
-9.9090e+00,0.032,-0.12
-9.9088e+00,0.024,0.104
-9.9086e+00,0.04,-0.128
-9.9085e+00,0.008,0.112
-9.9083e+00,0,-0.12
-9.9082e+00,-0.024,0.112
-9.9080e+00,0.024,-0.12
-9.9078e+00,0,0.096
-9.9077e+00,0.008,-0.128
-9.9075e+00,0.024,0.104
-9.9074e+00,0,-0.136
-9.9072e+00,-0.008,0.128
-9.9070e+00,-0.008,-0.136
-9.9069e+00,0.016,0.128
-9.9067e+00,0.048,-0.144
-9.9066e+00,0,0.136
-9.9064e+00,-0.016,-0.144
-9.9062e+00,-0.08,0.128
-9.9061e+00,-0.056,-0.144
-9.9059e+00,-0.032,0.128
-9.9058e+00,-0.024,-0.152
-9.9056e+00,0.016,0.128
-9.9054e+00,0.024,-0.144
-9.9053e+00,0.008,0.128
-9.9051e+00,0.024,-0.144
-9.9050e+00,0.008,0.128
-9.9048e+00,0.016,-0.144
-9.9046e+00,-0.008,0.128
-9.9045e+00,-0.032,-0.136
-9.9043e+00,-0.032,0.12
-9.9042e+00,0,-0.144
-9.9040e+00,-0.008,0.12
-9.9038e+00,-0.032,-0.136
-9.9037e+00,-0.024,0.12
-9.9035e+00,0.008,-0.136
-9.9034e+00,0.008,0.128
-9.9032e+00,0.024,-0.144
-9.9030e+00,0.016,0.12
-9.9029e+00,-0.008,-0.136
-9.9027e+00,-0.016,0.112
-9.9026e+00,0.048,-0.136
-9.9024e+00,-0.016,0.12
-9.9022e+00,0,-0.136
-9.9021e+00,0.032,0.112
-9.9019e+00,-0.056,-0.136
-9.9018e+00,0.008,0.12
-9.9016e+00,-0.056,-0.128
-9.9014e+00,0,0.104
-9.9013e+00,-0.048,-0.128
-9.9011e+00,0,0.104
-9.9010e+00,0.04,-0.128
-9.9008e+00,-0.016,0.112
-9.9006e+00,0.008,-0.128
-9.9005e+00,-0.016,0.104
-9.9003e+00,0,-0.144
-9.9002e+00,0,0.12
-9.9000e+00,0.008,-0.136
-9.8998e+00,0.016,0.104
-9.8997e+00,0.04,-0.128
-9.8995e+00,-0.016,0.104
-9.8994e+00,0.032,-0.12
-9.8992e+00,0.008,0.104
-9.8990e+00,-0.016,-0.136
-9.8989e+00,0.056,0.12
-9.8987e+00,0.016,-0.144
-9.8986e+00,-0.056,0.136
-9.8984e+00,0.08,-0.144
-9.8982e+00,-0.024,0.128
-9.8981e+00,-0.024,-0.144
-9.8979e+00,-0.032,0.128
-9.8978e+00,-0.04,-0.152
-9.8976e+00,-0.048,0.128
-9.8974e+00,0.032,-0.144
-9.8973e+00,-0.016,0.128
-9.8971e+00,0,-0.144
-9.8970e+00,-0.024,0.128
-9.8968e+00,-0.032,-0.144
-9.8966e+00,-0.008,0.128
-9.8965e+00,0.008,-0.144
-9.8963e+00,-0.024,0.128
-9.8962e+00,0.064,-0.144
-9.8960e+00,-0.048,0.136
-9.8958e+00,-0.016,-0.144
-9.8957e+00,-0.04,0.136
-9.8955e+00,0,-0.136
-9.8954e+00,-0.008,0.12
-9.8952e+00,0,-0.136
-9.8950e+00,-0.032,0.128
-9.8949e+00,-0.024,-0.136
-9.8947e+00,0.032,0.128
-9.8946e+00,0.032,-0.136
-9.8944e+00,-0.056,0.128
-9.8942e+00,0.016,-0.136
-9.8941e+00,-0.04,0.136
-9.8939e+00,0.008,-0.128
-9.8938e+00,-0.04,0.128
-9.8936e+00,-0.008,-0.12
-9.8934e+00,0.016,0.112
-9.8933e+00,-0.024,-0.112
-9.8931e+00,0,0.12
-9.8930e+00,0.048,-0.12
-9.8928e+00,0.008,0.12
-9.8926e+00,0.024,-0.112
-9.8925e+00,-0.024,0.12
-9.8923e+00,-0.024,-0.12
-9.8922e+00,-0.024,0.12
-9.8920e+00,0.024,-0.12
-9.8918e+00,-0.024,0.12
-9.8917e+00,0.048,-0.112
-9.8915e+00,0.04,0.12
-9.8914e+00,0.008,-0.112
-9.8912e+00,-0.016,0.112
-9.8910e+00,0.016,-0.112
-9.8909e+00,0.024,0.12
-9.8907e+00,0.024,-0.128
-9.8906e+00,-0.016,0.128
-9.8904e+00,-0.008,-0.136
-9.8902e+00,0.032,0.136
-9.8901e+00,-0.032,-0.136
-9.8899e+00,0.04,0.136
-9.8898e+00,0.032,-0.128
-9.8896e+00,0.024,0.144
-9.8894e+00,0.064,-0.128
-9.8893e+00,0,0.136
-9.8891e+00,-0.032,-0.128
-9.8890e+00,-0.056,0.136
-9.8888e+00,0.024,-0.128
-9.8886e+00,-0.024,0.16
-9.8885e+00,0.008,-0.136
-9.8883e+00,0.048,0.136
-9.8882e+00,-0.04,-0.128
-9.8880e+00,0.016,0.136
-9.8878e+00,0.016,-0.12
-9.8877e+00,-0.008,0.136
-9.8875e+00,-0.016,-0.12
-9.8874e+00,-0.024,0.128
-9.8872e+00,0.016,-0.12
-9.8870e+00,0.056,0.128
-9.8869e+00,-0.008,-0.136
-9.8867e+00,0.032,0.136
-9.8866e+00,0.032,-0.144
-9.8864e+00,0.096,0.128
-9.8862e+00,0.016,-0.12
-9.8861e+00,-0.016,0.128
-9.8859e+00,-0.016,-0.128
-9.8858e+00,0.048,0.128
-9.8856e+00,0.024,-0.12
-9.8854e+00,0.016,0.12
-9.8853e+00,-0.016,-0.12
-9.8851e+00,0.048,0.12
-9.8850e+00,0.032,-0.112
-9.8848e+00,-0.008,0.12
-9.8846e+00,-0.024,-0.112
-9.8845e+00,0.088,0.112
-9.8843e+00,-0.032,-0.112
-9.8842e+00,0,0.12
-9.8840e+00,-0.024,-0.12
-9.8838e+00,0.032,0.128
-9.8837e+00,0,-0.112
-9.8835e+00,-0.056,0.12
-9.8834e+00,0.024,-0.112
-9.8832e+00,0,0.12
-9.8830e+00,0.056,-0.112
-9.8829e+00,0,0.12
-9.8827e+00,0.032,-0.128
-9.8826e+00,0,0.128
-9.8824e+00,0.024,-0.128
-9.8822e+00,0.064,0.128
-9.8821e+00,0.04,-0.136
-9.8819e+00,0.048,0.144
-9.8818e+00,0.024,-0.128
-9.8816e+00,-0.048,0.128
-9.8814e+00,-0.032,-0.128
-9.8813e+00,0.032,0.136
-9.8811e+00,0.04,-0.136
-9.8810e+00,0.04,0.136
-9.8808e+00,-0.04,-0.136
-9.8806e+00,0.056,0.144
-9.8805e+00,-0.032,-0.136
-9.8803e+00,0.032,0.136
-9.8802e+00,0.016,-0.136
-9.8800e+00,0.008,0.144
-9.8798e+00,-0.016,-0.136
-9.8797e+00,0.064,0.136
-9.8795e+00,-0.024,-0.128
-9.8794e+00,-0.032,0.136
-9.8792e+00,0.008,-0.12
-9.8790e+00,-0.008,0.128
-9.8789e+00,-0.016,-0.112
-9.8787e+00,-0.016,0.12
-9.8786e+00,-0.048,-0.112
-9.8784e+00,-0.016,0.12
-9.8782e+00,0.024,-0.12
-9.8781e+00,0.056,0.128
-9.8779e+00,0.032,-0.128
-9.8778e+00,0.04,0.136
-9.8776e+00,0.008,-0.12
-9.8774e+00,0.032,0.128
-9.8773e+00,-0.008,-0.128
-9.8771e+00,0.016,0.136
-9.8770e+00,-0.016,-0.112
-9.8768e+00,0.08,0.12
-9.8766e+00,-0.008,-0.12
-9.8765e+00,0,0.128
-9.8763e+00,0.024,-0.112
-9.8762e+00,0.032,0.12
-9.8760e+00,-0.024,-0.112
-9.8758e+00,-0.016,0.12
-9.8757e+00,0.008,-0.12
-9.8755e+00,-0.016,0.128
-9.8754e+00,0,-0.12
-9.8752e+00,-0.016,0.12
-9.8750e+00,-0.008,-0.112
-9.8749e+00,-0.016,0.128
-9.8747e+00,0.064,-0.112
-9.8746e+00,0.024,0.12
-9.8744e+00,0.024,-0.12
-9.8742e+00,0.04,0.128
-9.8741e+00,0.008,-0.12
-9.8739e+00,-0.024,0.136
-9.8738e+00,-0.008,-0.136
-9.8736e+00,-0.008,0.136
-9.8734e+00,0.008,-0.128
-9.8733e+00,0.088,0.136
-9.8731e+00,-0.016,-0.12
-9.8730e+00,-0.024,0.136
-9.8728e+00,-0.008,-0.12
-9.8726e+00,-0.008,0.136
-9.8725e+00,0.008,-0.12
-9.8723e+00,0.016,0.136
-9.8722e+00,0.024,-0.128
-9.8720e+00,0.024,0.144
-9.8718e+00,-0.024,-0.128
-9.8717e+00,-0.008,0.136
-9.8715e+00,0.024,-0.12
-9.8714e+00,0.04,0.136
-9.8712e+00,-0.008,-0.128
-9.8710e+00,0.088,0.136
-9.8709e+00,0.016,-0.128
-9.8707e+00,-0.008,0.152
-9.8706e+00,0.048,-0.12
-9.8704e+00,0.032,0.128
-9.8702e+00,-0.032,-0.12
-9.8701e+00,0.048,0.128
-9.8699e+00,-0.008,-0.12
-9.8698e+00,-0.008,0.144
